VERSION 10.2.1
'MBX 1.9K D1 SEPARATION DIPOLE IN IP2 (ALICE) AND IP8 (LHCb) NB: Meas and model 4.5K'
'../datab/roxie.bhdata                                                              '
'../datab/roxie.cadata                                                              '
'MBX_2D.iron                                                                        '

&OPTION
  LEND=F     LWEDG=F    LPERS=F    LQUENCH=F  LALGO=F    LQUENCH0D=F
  LMIRIRON=F LBEMFEM=T  LPSI=F     LSOLV=F    LIRON=T    LMORPH=F   
  LHARD=F    LPOSTP=F   LPEAK=T    LINMARG=F  LMARG=F    LSELF=T    
  LMQE=F     LINDU=F    LEDDY=F    LSOLE=F    LFLUX=F    LFIELD3=F  
  LFISTR=F   LSELF3=F   LBRICK=F   LLEAD=F    LVRML=F    LOPERA=F   
  LOPER20=F  LANSYS=F   LRX2ANS=F  LANS2RX=F  LDXF=F     LMAP2D=T   
  LMAP3D=F   LEXPR=F    LFIL3D=F   LFIL2D=F   LCNC=F     LANSYSCN=F 
  LWEIRON=F  LCATIA=F   LEXEL=T    LQVOLT=F   LAXIS=T    LIMAGX=F   
  LIMAGY=F   LRAEND=F   LMARKER=F  LROLER2=F  LROLERP=F  LIMAGZZ=F  
  LSUPP=F    LSTEP=F    LIFF=F     LICCA=F    LICC=F     LICCIND=F  
  LITERNL=F  LTOPO=F    LQUEN3=F   LAYER=T    LEULER=T   LHEAD=T    
  LPLOT=T    LVERS52=T  LHARM=T    LMATRF=F   LF3LIN=F   LKVAL=F    
  
  /

GLOBAL2DOPTION 0

GLOBAL3D 0

BLOCK 8
    1     1     9        39.97        0.143            0         6000      RHIC1   2  15     0            0 
    2     1    11        39.97      16.9828      19.2559         6000      RHIC1   2  15     0            0 
    3     1     8        39.97      41.2433      42.7028         6000      RHIC1   2  15     0            0 
    4     1     4        39.97      65.9056      69.2946         6000      RHIC1   2  15     0            0 
    5     1     9        39.97        0.143            0        -6000      RHIC1   2  15     0          180 
    6     1    11        39.97      16.9828      19.2559        -6000      RHIC1   2  15     0          180 
    7     1     8        39.97      41.2433      42.7028        -6000      RHIC1   2  15     0          180 
    8     1     4        39.97      65.9056      69.2946        -6000      RHIC1   2  15     0          180 
   no  type   nco       radius          phi        alpha      current   condname  n1  n2  imag         turn 

BLOCKOPTION 0

BLOCK3D 0

LEAD 0

BRICK 0

IRONYOKEOPTIONS /
      1 
  scale 

             0            0 
         inrad       reperm 

      1 
  symtype 

      3     2     1 
  yzplane zxplane xyplane 

      1     0     0 
   mode   div   sym 

IRONYOKE 0

EXTRUSION 0

PERMANENTMAG2 0

PERMANENTMAG1 0

LAYER 2
      1     2     2 1 2 3 4 /
      2     2     2 5 6 7 8 /
     no  symm typexy blocks 

ALGO /
      0 
   algo 

DESIGN 2
      1        0.002        0.002        0.002     5      DCONT     0 0 /
      2          4.5          4.5          4.5     5       TEMP     0 0 /
     no           xl           xu           xs genen     string   act bcs 

EULER 0

PEAK 0

TIMETABLE2 0

TIMETABLE1 4
      1            0            1     1     0.004167            1            0            0     5 1 /
      2            1            2     1            1     0.004167            0            0     5 1 /
      3            2            3     1     0.004167          0.1            0            0    23 1 /
      4            3            4     1          0.1            1            0            0    54 1 /
     no          tds          tde    ff            a            b            c            d nsteps layers 

EDDY /
      1 
   pers 

EDDYOPTIONS 0

QUENCHG 0

QUENCHEN 0

QUENCHTM 0

QUENCHP 0

QUENCHS 0

HARMONICTABLE 2
      1     1            0            0            0            0           17        2                      0 
      2     1            0            0            0            0           17        2                      4 
     no  type            x            y           s1           s2         rref     bref                  field 

MATRF 1
             0            0     0 
             0            0     0 
             0            0     0     0 
         start          end    no field 

LINEFIELD 0

KVALUES 0

HARMONICOPTION 1
      1      RHARM            1 2 /
     no     string        value harmoniccoil 

GRAPH 9
      1          2     CURNTB     1     0          B     2     1       1     1            1 
      2          2     CURNTB     1     0          B     3     1       2     1            1 
      3          2     CURNTB     1     0          B     5     1       3     1            1 
      4          2     CURNTB     1     0          B     7     1       4     1            1 
      5          2     CURNTB     1     0          B     1     2       5     1            1 
      6          2     CURNTB     1     0          B     2     2       6     1            1 
      6          2     CURNTB     1     0          B     3     2       7     1            1 
      7          2     CURNTB     1     0          B     5     2       8     1            1 
      8          2     CURNTB     1     0          B     7     2       9     1            1 
     no       type     xvalue   s1x   s2x     yvalue   s1y   s2y plotnbr  axes       weight 

GRAPHOPTION 0

PLOT2D 10
      1          150     1     0     0 IRON AR / 
      2          150     1     0     0 IRON |BTOT| / 
      3          150     1     0     0 IRON MESH / 
      4          150     1     0     0 IRON MUER / 
      5          310     1     0     0 IRON AR / 
      6          310     1     0     0 IRON |BTOT| / 
      7          310     1     0     0 IRON MESH / 
      8          310     1     0     0 IRON MUER / 
      9          100     1     1     0 I / 
     10          100     1     1     0 |B| / 
     no       zxaxis colour fquad harmcoil field 

PLOT2DOPTION 0

PLOT3D 0

PLOT3DOPTION 0

OBJECTIVE 0

ANSYSOPTIONS /
      0 
  scale 

      0 
  scale 

             0            0            0            0 
          ang1         ang2         offx         offy 

QUENCH0D /
             0            0            0            0 
          qini         tque         leng         indu 


