sim number,Test name,Test Type,Trigger Type,Temperature [K],Current [A],dI/dt (t < 0) [A/s],QH Name,QH Voltage [V],Notes,QH connected,QH Start time [s],QH Resistance [Ohm],QH Capacitance [F],,,,,,Priority,Current,Trigger type,QH connected,V_QH,R_QH,Delay_QH,Notes,QI_trig expeced,QI_trig measured,QI_Q expeced,QI_Q measured,T_Q expected (adiabatic),T_Q from meas,File Name,test comment
100,K2210071259_hh004,QH induced,"manual quench detection
",1.9,2000,0,U_Heater1; U_Heater2; U_Heater3; U_Heater4; U_Heater5; U_Heater6; U_Heater7; U_Heater8,900; 900; 900; 900; 900; 900; 900; 900,8 QH 8QHPS Standard,ALL QHs,0.002; 0.002; 0.002; 0.002; 0.002; 0.002; 0.002; 0.002,7; 7; 7; 7; 7; 7; 7; 7,0.00705; 0.00705; 0.00705; 0.00705; 0.00705; 0.00705; 0.00705; 0.00705,,,,,8 QH 8QHPS characterization,1,2,Potaim,ALL QHs,900,7,0,8 QH 8QHPS Standard,3.08,6.32,3.45,,26,,K2210071259_hh004,
101,K2210071455_hh005,QH induced,"manual quench detection
",1.9,4000,0,U_Heater1; U_Heater2; U_Heater3; U_Heater4; U_Heater5; U_Heater6; U_Heater7; U_Heater8,900; 900; 900; 900; 900; 900; 900; 900,8 QH 8QHPS Standard,ALL QHs,0.002; 0.002; 0.002; 0.002; 0.002; 0.002; 0.002; 0.002,7; 7; 7; 7; 7; 7; 7; 7,0.00705; 0.00705; 0.00705; 0.00705; 0.00705; 0.00705; 0.00705; 0.00705,,,,,,2,4,Potaim,ALL QHs,900,7,0,8 QH 8QHPS Standard,10.73,13.37,12.02,,47,,K2210071455_hh005,
102,K2210101336_hh006,QH induced,"manual quench detection
",1.9,8000,0,U_Heater1; U_Heater2; U_Heater3; U_Heater4; U_Heater5; U_Heater6; U_Heater7; U_Heater8,900; 900; 900; 900; 900; 900; 900; 900,8 QH 8QHPS Standard,ALL QHs,0.002; 0.002; 0.002; 0.002; 0.002; 0.002; 0.002; 0.002,7; 7; 7; 7; 7; 7; 7; 7,0.00705; 0.00705; 0.00705; 0.00705; 0.00705; 0.00705; 0.00705; 0.00705,,,,,,1,8,Potaim,ALL QHs,900,7,0,8 QH 8QHPS Standard,21.99,21.1,25.51,,121,,K2210101336_hh006,
103,K2210111803_hh007,QH induced,"manual quench detection
",1.9,12330,0,U_Heater1; U_Heater2; U_Heater3; U_Heater4; U_Heater5; U_Heater6; U_Heater7; U_Heater8,900; 900; 900; 900; 900; 900; 900; 900,8 QH 8QHPS Standard,ALL QHs,0.002; 0.002; 0.002; 0.002; 0.002; 0.002; 0.002; 0.002,7; 7; 7; 7; 7; 7; 7; 7,0.00705; 0.00705; 0.00705; 0.00705; 0.00705; 0.00705; 0.00705; 0.00705,,,,,,1,12.33,Potaim,ALL QHs,900,7,0,8 QH 8QHPS Standard,28.12,26.3,32.28,,232,,K2210111803_hh007,
104,K2211141759_hh004,QH induced,"manual quench detection
",1.9,13360,0,U_Heater1; U_Heater2; U_Heater3; U_Heater4; U_Heater5; U_Heater6; U_Heater7; U_Heater8,900; 900; 900; 900; 900; 900; 900; 900,8 QH 8QHPS Standard,ALL QHs,0.002; 0.002; 0.002; 0.002; 0.002; 0.002; 0.002; 0.002,7; 7; 7; 7; 7; 7; 7; 7,0.00705; 0.00705; 0.00705; 0.00705; 0.00705; 0.00705; 0.00705; 0.00705,,,,,,1,13.36,Potaim,ALL QHs,900,7,0,8 QH 8QHPS Standard,29.42,27.08,33.12,,254,,K2211141759_hh004,
105,K2211021323_hh002(0),QH induced,"manual quench detection
",4.5,12330,0,U_Heater1; U_Heater2; U_Heater3; U_Heater4; U_Heater5; U_Heater6; U_Heater7; U_Heater8,900; 900; 900; 900; 900; 900; 900; 900,8 QH 8QHPS Standard,ALL QHs,0.002; 0.002; 0.002; 0.002; 0.002; 0.002; 0.002; 0.002,7; 7; 7; 7; 7; 7; 7; 7,0.00705; 0.00705; 0.00705; 0.00705; 0.00705; 0.00705; 0.00705; 0.00705,,,,,4.5 K 8 QH ,,12.33,Potaim,ALL QHs,900,7,0,8 QH 8QHPS Standard,,,,,,,K2211021323_hh002(0),
106,K2211150945_hh005,QH induced,"manual quench detection
",1.9,2000,0,U_Heater1; U_Heater2; U_Heater3; U_Heater4; U_Heater5; U_Heater6; U_Heater7; U_Heater8,900; 900; 900; 900; 900; 900; 900; 900,8 QH 8QHPS Failure 3,"YT212, YT121, YT112, YT222,YT111,YT122",0.002; 99999; 0.002; 99999; 0.002; 0.002; 0.002; 0.002,7; 7; 7; 7; 7; 7; 7; 7,0.00705; 0.00705; 0.00705; 0.00705; 0.00705; 0.00705; 0.00705; 0.00705,,,,,8QH 8QHPS  characterization,1,2,Potaim,"YT212, YT121, YT112, YT222,YT111,YT122",900,7,0,8 QH 8QHPS Failure 3,3.25,7.24,3.62,,27,,K2211150945_hh005,
107,K2211151020_hh006,QH induced,"manual quench detection
",1.9,4000,0,U_Heater1; U_Heater2; U_Heater3; U_Heater4; U_Heater5; U_Heater6; U_Heater7; U_Heater8,900; 900; 900; 900; 900; 900; 900; 900,8 QH 8QHPS Failure 3,"YT212, YT121, YT112, YT222,YT111,YT122",0.002; 99999; 0.002; 99999; 0.002; 0.002; 0.002; 0.002,7; 7; 7; 7; 7; 7; 7; 7,0.00705; 0.00705; 0.00705; 0.00705; 0.00705; 0.00705; 0.00705; 0.00705,,,,,,2,4,Potaim,"YT212, YT121, YT112, YT222,YT111,YT122",900,7,0,8 QH 8QHPS Failure 3,11.58,14.51,12.87,,49,,K2211151020_hh006,
108,K2211151133.hh007,QH induced,"manual quench detection
",1.9,8000,0,U_Heater1; U_Heater2; U_Heater3; U_Heater4; U_Heater5; U_Heater6; U_Heater7; U_Heater8,900; 900; 900; 900; 900; 900; 900; 900,8 QH 8QHPS Failure 3,"YT212, YT121, YT112, YT222,YT111,YT122",0.002; 99999; 0.002; 99999; 0.002; 0.002; 0.002; 0.002,7; 7; 7; 7; 7; 7; 7; 7,0.00705; 0.00705; 0.00705; 0.00705; 0.00705; 0.00705; 0.00705; 0.00705,,,,,,1,8,Potaim,"YT212, YT121, YT112, YT222,YT111,YT122",900,7,0,8 QH 8QHPS Failure 3,23.8,22.77,27.33,,137,,K2211151133.hh007,
109,K2211151335_hh008,QH induced,"manual quench detection
",1.9,12330,0,U_Heater1; U_Heater2; U_Heater3; U_Heater4; U_Heater5; U_Heater6; U_Heater7; U_Heater8,900; 900; 900; 900; 900; 900; 900; 900,8 QH 8QHPS Failure 3,"YT212, YT121, YT112, YT222,YT111,YT122",0.002; 99999; 0.002; 99999; 0.002; 0.002; 0.002; 0.002,7; 7; 7; 7; 7; 7; 7; 7,0.00705; 0.00705; 0.00705; 0.00705; 0.00705; 0.00705; 0.00705; 0.00705,,,,,,1,12.33,Potaim,"YT212, YT121, YT112, YT222,YT111,YT122",900,7,0,8 QH 8QHPS Failure 3,30,28.24,34.16,,265,,K2211151335_hh008,
110,K2211221002_hh038,QH induced,"manual quench detection
",1.9,6000,0,U_Heater1; U_Heater2; U_Heater3; U_Heater4; U_Heater5; U_Heater6; U_Heater7; U_Heater8,900; 900; 900; 900; 900; 900; 900; 900,6 QH 6QHPS Standard,"YT212, YT121,YT112,YT222,YT111,YT221",0.002; 99999; 0.002; 99999; 0.002; 0.002; 0.002; 0.002,7; 7; 7; 7; 7; 7; 7; 7,0.00705; 0.00705; 0.00705; 0.00705; 0.00705; 0.00705; 0.00705; 0.00705,,,,,6 QH 6QHPS characterization,3,6,Potaim,"YT212, YT121,YT112,YT222,YT111,YT221",900,7,0,6 QH 6QHPS Standard,19.3,19.01,21.74,19.01,86,,K2211221002_hh038,without YT 211&YT122
111,test_not_performed_1,QH induced,"manual quench detection
",1.9,12330,0,U_Heater1; U_Heater2; U_Heater3; U_Heater4; U_Heater5; U_Heater6; U_Heater7; U_Heater8,900; 900; 900; 900; 900; 900; 900; 900,6 QH 6QHPS Standard,"YT212, YT121,YT112,YT222,YT111,YT221",0.002; 99999; 0.002; 99999; 0.002; 0.002; 0.002; 0.002,7; 7; 7; 7; 7; 7; 7; 7,0.00705; 0.00705; 0.00705; 0.00705; 0.00705; 0.00705; 0.00705; 0.00705,,,,,,3,12.33,Potaim,"YT212, YT121,YT112,YT222,YT111,YT221",900,7,0,6 QH 6QHPS Standard,29.71,,33.87,,260,,,
112,K2211221206_hh039,QH induced,"manual quench detection
",1.9,6000,0,U_Heater1; U_Heater2; U_Heater3; U_Heater4; U_Heater5; U_Heater6; U_Heater7; U_Heater8,900; 900; 900; 900; 900; 900; 900; 900,6 QH 6QHPS Failure 3,"YT212, YT121, YT222,YT111",0.002; 99999; 0.002; 99999; 99999; 0.002; 99999; 0.002,7; 7; 7; 7; 7; 7; 7; 7,0.00705; 0.00705; 0.00705; 0.00705; 0.00705; 0.00705; 0.00705; 0.00705,,,,,6 QH 6QHPS  characterization,3,6,Potaim,"YT212, YT121, YT222,YT111",900,7,0,6 QH 6QHPS Failure 3,21.77,21.23,24.21,21.23,101,,K2211221206_hh039,
113,test_not_performed_2,QH induced,"manual quench detection
",1.9,12330,0,U_Heater1; U_Heater2; U_Heater3; U_Heater4; U_Heater5; U_Heater6; U_Heater7; U_Heater8,900; 900; 900; 900; 900; 900; 900; 900,6 QH 6QHPS Failure 3,"YT212, YT121, YT222,YT111",0.002; 99999; 0.002; 99999; 99999; 0.002; 99999; 0.002,7; 7; 7; 7; 7; 7; 7; 7,0.00705; 0.00705; 0.00705; 0.00705; 0.00705; 0.00705; 0.00705; 0.00705,,,,,,3,12.33,Potaim,"YT212, YT121, YT222,YT111",900,7,0,6 QH 6QHPS Failure 3,32.75,,36.9,,323,,,
114,test_not_performed_3,QH induced,"manual quench detection
",1.9,2000,0,U_Heater1; U_Heater2; U_Heater3; U_Heater4; U_Heater5; U_Heater6; U_Heater7; U_Heater8,450; 450; 450; 450; 450; 450; 450; 450,8 QH 4QHPS Standard,"(YT221,YT111) (YT211,YT112) (YT121,YT222) (YT122,YT212)",0.002; 0.002; 0.002; 0.002; 0.002; 0.002; 0.002; 0.002,7; 7; 7; 7; 7; 7; 7; 7,0.0141; 0.0141; 0.0141; 0.0141; 0.0141; 0.0141; 0.0141; 0.0141,,,,,8 QH 4QHPS characterization,3,2,Potaim,"(YT221,YT111) (YT211,YT112) (YT121,YT222) (YT122,YT212)",900,7,0,8 QH 4QHPS Standard,3.19,,3.56,,27,,,
115,test_not_performed_4,QH induced,"manual quench detection
",1.9,4000,0,U_Heater1; U_Heater2; U_Heater3; U_Heater4; U_Heater5; U_Heater6; U_Heater7; U_Heater8,450; 450; 450; 450; 450; 450; 450; 450,8 QH 4QHPS Standard,"(YT221,YT111) (YT211,YT112) (YT121,YT222) (YT122,YT212)",0.002; 0.002; 0.002; 0.002; 0.002; 0.002; 0.002; 0.002,7; 7; 7; 7; 7; 7; 7; 7,0.0141; 0.0141; 0.0141; 0.0141; 0.0141; 0.0141; 0.0141; 0.0141,,,,,,3,4,Potaim,"(YT221,YT111) (YT211,YT112) (YT121,YT222) (YT122,YT212)",900,7,0,8 QH 4QHPS Standard,11.24,,12.53,,48,,,
116,test_not_performed_5,QH induced,"manual quench detection
",1.9,8000,0,U_Heater1; U_Heater2; U_Heater3; U_Heater4; U_Heater5; U_Heater6; U_Heater7; U_Heater8,450; 450; 450; 450; 450; 450; 450; 450,8 QH 4QHPS Standard,"(YT221,YT111) (YT211,YT112) (YT121,YT222) (YT122,YT212)",0.002; 0.002; 0.002; 0.002; 0.002; 0.002; 0.002; 0.002,7; 7; 7; 7; 7; 7; 7; 7,0.0141; 0.0141; 0.0141; 0.0141; 0.0141; 0.0141; 0.0141; 0.0141,,,,,,3,8,Potaim,"(YT221,YT111) (YT211,YT112) (YT121,YT222) (YT122,YT212)",900,7,0,8 QH 4QHPS Standard,23.23,,26.75,,132,,,
117,test_not_performed_6,QH induced,"manual quench detection
",1.9,12330,0,U_Heater1; U_Heater2; U_Heater3; U_Heater4; U_Heater5; U_Heater6; U_Heater7; U_Heater8,450; 450; 450; 450; 450; 450; 450; 450,8 QH 4QHPS Standard,"(YT221,YT111) (YT211,YT112) (YT121,YT222) (YT122,YT212)",0.002; 0.002; 0.002; 0.002; 0.002; 0.002; 0.002; 0.002,7; 7; 7; 7; 7; 7; 7; 7,0.0141; 0.0141; 0.0141; 0.0141; 0.0141; 0.0141; 0.0141; 0.0141,,,,,,3,12.33,Potaim,"(YT221,YT111) (YT211,YT112) (YT121,YT222) (YT122,YT212)",900,7,0,8 QH 4QHPS Standard,29.77,,33.93,,261,,,
118,test_not_performed_7,QH induced,"manual quench detection
",1.9,13360,0,U_Heater1; U_Heater2; U_Heater3; U_Heater4; U_Heater5; U_Heater6; U_Heater7; U_Heater8,450; 450; 450; 450; 450; 450; 450; 450,8 QH 4QHPS Standard,"(YT221,YT111) (YT211,YT112) (YT121,YT222) (YT122,YT212)",0.002; 0.002; 0.002; 0.002; 0.002; 0.002; 0.002; 0.002,7; 7; 7; 7; 7; 7; 7; 7,0.0141; 0.0141; 0.0141; 0.0141; 0.0141; 0.0141; 0.0141; 0.0141,,,,,,3,13.36,Potaim,"(YT221,YT111) (YT211,YT112) (YT121,YT222) (YT122,YT212)",900,7,0,8 QH 4QHPS Standard,31.21,,34.91,,289,,,
119,test_not_performed_8,QH induced,"manual quench detection
",1.9,2000,0,U_Heater1; U_Heater2; U_Heater3; U_Heater4; U_Heater5; U_Heater6; U_Heater7; U_Heater8,450; 450; 450; 450; 450; 450; 450; 450,8 QH 4QHPS Failure 3,"(YT121,YT222) (YT122,YT212)",99999; 99999; 0.002; 99999; 99999; 0.002; 0.002; 0.002,7; 7; 7; 7; 7; 7; 7; 7,0.0141; 0.0141; 0.0141; 0.0141; 0.0141; 0.0141; 0.0141; 0.0141,,,,,8 QH 4QHPS  characterization,3,2,Potaim,"(YT121,YT222) (YT122,YT212)",900,7,0,8 QH 4QHPS Failure 3,3.5,,3.87,,27,,,
120,test_not_performed_9,QH induced,"manual quench detection
",1.9,4000,0,U_Heater1; U_Heater2; U_Heater3; U_Heater4; U_Heater5; U_Heater6; U_Heater7; U_Heater8,450; 450; 450; 450; 450; 450; 450; 450,8 QH 4QHPS Failure 3,"(YT121,YT222) (YT122,YT212)",99999; 99999; 0.002; 99999; 99999; 0.002; 0.002; 0.002,7; 7; 7; 7; 7; 7; 7; 7,0.0141; 0.0141; 0.0141; 0.0141; 0.0141; 0.0141; 0.0141; 0.0141,,,,,,3,4,Potaim,"(YT121,YT222) (YT122,YT212)",900,7,0,8 QH 4QHPS Failure 3,12.91,,14.2,,52,,,
121,test_not_performed_10,QH induced,"manual quench detection
",1.9,8000,0,U_Heater1; U_Heater2; U_Heater3; U_Heater4; U_Heater5; U_Heater6; U_Heater7; U_Heater8,450; 450; 450; 450; 450; 450; 450; 450,8 QH 4QHPS Failure 3,"(YT121,YT222) (YT122,YT212)",99999; 99999; 0.002; 99999; 99999; 0.002; 0.002; 0.002,7; 7; 7; 7; 7; 7; 7; 7,0.0141; 0.0141; 0.0141; 0.0141; 0.0141; 0.0141; 0.0141; 0.0141,,,,,,3,8,Potaim,"(YT121,YT222) (YT122,YT212)",900,7,0,8 QH 4QHPS Failure 3,27.06,,30.58,,174,,,
122,test_not_performed_11,QH induced,"manual quench detection
",1.9,12330,0,U_Heater1; U_Heater2; U_Heater3; U_Heater4; U_Heater5; U_Heater6; U_Heater7; U_Heater8,450; 450; 450; 450; 450; 450; 450; 450,8 QH 4QHPS Failure 3,"(YT121,YT222) (YT122,YT212)",99999; 99999; 0.002; 99999; 99999; 0.002; 0.002; 0.002,7; 7; 7; 7; 7; 7; 7; 7,0.0141; 0.0141; 0.0141; 0.0141; 0.0141; 0.0141; 0.0141; 0.0141,,,,,,3,12.33,Potaim,"(YT121,YT222) (YT122,YT212)",900,7,0,8 QH 4QHPS Failure 3,33.77,,37.93,,348,,,
123,K2211160947_x016(1),QH induced,YT221,1.9,1000,0,U_Heater1; U_Heater2; U_Heater3; U_Heater4; U_Heater5; U_Heater6; U_Heater7; U_Heater8,900; 900; 900; 200; 900; 900; 900; 900,"YT221 at Vmin (in Ledet 200 V), the rest at 900V",All the other QHs 6 quench heaters,0.002; 0.002; 0.002; -0.1; 0.002; 0.002; 0.002; 0.002,7; 7; 7; 7; 7; 7; 7; 7,0.00705; 0.00705; 0.00705; 0.00705; 0.00705; 0.00705; 0.00705; 0.00705,,,,,"QH delay, low voltage (minimum QH energy) 8QH 8QHPS",2,1,YT221,All the other QHs 6 quench heaters,"200
900",7,0,"YT221 at Vmin (in Ledet 200 V), the rest at 900V",0.69,,0.7,,18,,K2211160947_x016(1),without YT 121 - no quench
124,K2211160954_hh013(2),QH induced,YT221,1.9,2000,0,U_Heater1; U_Heater2; U_Heater3; U_Heater4; U_Heater5; U_Heater6; U_Heater7; U_Heater8,900; 900; 900; 200; 900; 900; 900; 900,"YT221 at Vmin (in Ledet 200 V), the rest at 900V",All the other QHs 6 quench heaters,0.002; 0.002; 0.002; -0.1; 0.002; 0.002; 0.002; 0.002,7; 7; 7; 7; 7; 7; 7; 7,0.00705; 0.00705; 0.00705; 0.00705; 0.00705; 0.00705; 0.00705; 0.00705,,,,,,2,2,YT221,All the other QHs 6 quench heaters,"200
900",7,0,"YT221 at Vmin (in Ledet 200 V), the rest at 900V",2.8,,2.84,,26,,K2211160954_hh013(2),without YT 121 - no quench
125,K2211161000_hh014,QH induced,YT221,1.9,3000,0,U_Heater1; U_Heater2; U_Heater3; U_Heater4; U_Heater5; U_Heater6; U_Heater7; U_Heater8,900; 900; 900; 200; 900; 900; 900; 900,"YT221 at Vmin (in Ledet 200 V), the rest at 900V",All the other QHs 6 quench heaters,0.002; 0.002; 0.002; -0.1; 0.002; 0.002; 0.002; 0.002,7; 7; 7; 7; 7; 7; 7; 7,0.00705; 0.00705; 0.00705; 0.00705; 0.00705; 0.00705; 0.00705; 0.00705,,,,,,2,3,YT221,All the other QHs 6 quench heaters,"200
900",7,0,"YT221 at Vmin (in Ledet 200 V), the rest at 900V",6.05,,6.14,,35,,K2211161000_hh014,without YT 121 - no quench
126,K2211161514_hh018(1),QH induced,YT212,1.9,1000,0,U_Heater1; U_Heater2; U_Heater3; U_Heater4; U_Heater5; U_Heater6; U_Heater7; U_Heater8,900; 900; 900; 900; 900; 200; 900; 900,"YT212 at Vmin (in Ledet 200 V), the rest at 900V",All the other QHs 6 quench heaters,0.002; 0.002; 0.002; 0.002; 0.002; -.1; 0.002; 0.002,7; 7; 7; 7; 7; 7; 7; 7,0.00705; 0.00705; 0.00705; 0.00705; 0.00705; 0.00705; 0.00705; 0.00705,,,,,"QH delay, low voltage (minimum QH energy) 8QH 8QHPS",1,1,YT212,All the other QHs 6 quench heaters,"200
900",7,0,"YT212 at Vmin (in Ledet 200 V), the rest at 900V",0.69,,0.7,,18,,K2211161514_hh018(1),without YT 121 - no quench
127,K2211161527_hh019(1),QH induced,YT212,1.9,2000,0,U_Heater1; U_Heater2; U_Heater3; U_Heater4; U_Heater5; U_Heater6; U_Heater7; U_Heater8,900; 900; 900; 900; 900; 200; 900; 900,"YT212 at Vmin (in Ledet 200 V), the rest at 900V",All the other QHs 6 quench heaters,0.002; 0.002; 0.002; 0.002; 0.002; -.1; 0.002; 0.002,7; 7; 7; 7; 7; 7; 7; 7,0.00705; 0.00705; 0.00705; 0.00705; 0.00705; 0.00705; 0.00705; 0.00705,,,,,,1,2,YT212,All the other QHs 6 quench heaters,"200
900",7,0,"YT212 at Vmin (in Ledet 200 V), the rest at 900V",2.8,,2.84,,26,,K2211161527_hh019(1),without YT 121 - no quench
128,K2211161535_hh020,QH induced,YT212,1.9,3000,0,U_Heater1; U_Heater2; U_Heater3; U_Heater4; U_Heater5; U_Heater6; U_Heater7; U_Heater8,900; 900; 900; 900; 900; 200; 900; 900,"YT212 at Vmin (in Ledet 200 V), the rest at 900V",All the other QHs 6 quench heaters,0.002; 0.002; 0.002; 0.002; 0.002; -.1; 0.002; 0.002,7; 7; 7; 7; 7; 7; 7; 7,0.00705; 0.00705; 0.00705; 0.00705; 0.00705; 0.00705; 0.00705; 0.00705,,,,,,1,3,YT212,All the other QHs 6 quench heaters,"200
900",7,0,"YT212 at Vmin (in Ledet 200 V), the rest at 900V",6.05,,6.14,,35,,K2211161535_hh020,without YT 121 - no quench
129,K2211170956_hh024,QH induced,YT111,1.9,1000,0,U_Heater1; U_Heater2; U_Heater3; U_Heater4; U_Heater5; U_Heater6; U_Heater7; U_Heater8,200; 900; 900; 900; 900; 900; 900; 900,"YT111 at Vmin (in Ledet 200 V), the rest at 900V",All the other QHs 6 quench heaters,-.1; 0.002; 0.002; 0.002; 0.002; 0.002; 0.002; 0.002,7; 7; 7; 7; 7; 7; 7; 7,0.00705; 0.00705; 0.00705; 0.00705; 0.00705; 0.00705; 0.00705; 0.00705,,,,,"QH delay, low voltage (minimum QH energy) 8QH 8QHPS",1,1,YT111,All the other QHs 6 quench heaters,"200
900",7,0,"YT111 at Vmin (in Ledet 200 V), the rest at 900V",0.69,0,0.7,0,18,,K2211170956_hh024,without YT 211
130,K2211171003_hh025,QH induced,YT111,1.9,2000,0,U_Heater1; U_Heater2; U_Heater3; U_Heater4; U_Heater5; U_Heater6; U_Heater7; U_Heater8,200; 900; 900; 900; 900; 900; 900; 900,"YT111 at Vmin (in Ledet 200 V), the rest at 900V",All the other QHs 6 quench heaters,-.1; 0.002; 0.002; 0.002; 0.002; 0.002; 0.002; 0.002,7; 7; 7; 7; 7; 7; 7; 7,0.00705; 0.00705; 0.00705; 0.00705; 0.00705; 0.00705; 0.00705; 0.00705,,,,,,1,2,YT111,All the other QHs 6 quench heaters,"200
900",7,0,"YT111 at Vmin (in Ledet 200 V), the rest at 900V",2.8,0,2.84,0,26,,K2211171003_hh025,without YT 211
131,K2211171009_hh026,QH induced,YT111,1.9,3000,0,U_Heater1; U_Heater2; U_Heater3; U_Heater4; U_Heater5; U_Heater6; U_Heater7; U_Heater8,200; 900; 900; 900; 900; 900; 900; 900,"YT111 at Vmin (in Ledet 200 V), the rest at 900V",All the other QHs 6 quench heaters,-.1; 0.002; 0.002; 0.002; 0.002; 0.002; 0.002; 0.002,7; 7; 7; 7; 7; 7; 7; 7,0.00705; 0.00705; 0.00705; 0.00705; 0.00705; 0.00705; 0.00705; 0.00705,,,,,,1,3,YT111,All the other QHs 6 quench heaters,"200
900",7,0,"YT111 at Vmin (in Ledet 200 V), the rest at 900V",6.05,0,6.14,0,35,,K2211171009_hh026,without YT 211
132,K2211151634_hh010,QH induced,YT221,1.9,2000,0,U_Heater1; U_Heater2; U_Heater3; U_Heater4; U_Heater5; U_Heater6; U_Heater7; U_Heater8,900; 900; 900; 450; 900; 900; 900; 900,"YT221 at 450 V, the rest at 900V",All the other QHs,0.002; 0.002; 0.002; -0.1; 0.002; 0.002; 0.002; 0.002,7; 7; 7; 7; 7; 7; 7; 7,0.00705; 0.00705; 0.00705; 0.00705; 0.00705; 0.00705; 0.00705; 0.00705,,,,,QH delay 8QH 8QHPS,3,2,YT221,All the other QHs,"450
900",7,0,"YT221 at 450 V, the rest at 900V",2.95,,2.99,,26,,K2211151634_hh010,without YT 121
133,K2211161015_hh015,QH induced,YT221,1.9,6000,0,U_Heater1; U_Heater2; U_Heater3; U_Heater4; U_Heater5; U_Heater6; U_Heater7; U_Heater8,900; 900; 900; 450; 900; 900; 900; 900,"YT221 at 450 V, the rest at 900V",All the other QHs,0.002; 0.002; 0.002; -0.1; 0.002; 0.002; 0.002; 0.002,7; 7; 7; 7; 7; 7; 7; 7,0.00705; 0.00705; 0.00705; 0.00705; 0.00705; 0.00705; 0.00705; 0.00705,,,,,,3,6,YT221,All the other QHs,"450
900",7,0,"YT221 at 450 V, the rest at 900V",17.64,,17.75,,74,,K2211161015_hh015,without YT 121
134,K2211181611_hh034,QH induced,YT221,1.9,12330,0,U_Heater1; U_Heater2; U_Heater3; U_Heater4; U_Heater5; U_Heater6; U_Heater7; U_Heater8,900; 900; 900; 450; 900; 900; 900; 900,"YT221 at 450 V, the rest at 900V",All the other QHs,0.002; 0.002; 0.002; -0.1; 0.002; 0.002; 0.002; 0.002,7; 7; 7; 7; 7; 7; 7; 7,0.00705; 0.00705; 0.00705; 0.00705; 0.00705; 0.00705; 0.00705; 0.00705,,,,,,3,12.33,YT221,All the other QHs,"450
900",7,0,"YT221 at 450 V, the rest at 900V",27.03,26.14,28.55,29.06,268,,K2211181611_hh034,without YT 121
135,K2211211133_hh035,QH induced,YT212,1.9,2000,0,U_Heater1; U_Heater2; U_Heater3; U_Heater4; U_Heater5; U_Heater6; U_Heater7; U_Heater8,900; 900; 900; 900; 900; 450; 900; 900,"YT212 at 450 V, the rest at 900V",All the other QHs,0.002; 0.002; 0.002; 0.002; 0.002; -.1; 0.002; 0.002,7; 7; 7; 7; 7; 7; 7; 7,0.00705; 0.00705; 0.00705; 0.00705; 0.00705; 0.00705; 0.00705; 0.00705,,,,,QH delay 8QH 8QHPS,3,2,YT212,All the other QHs,"450
900",7,0,"YT212 at 450 V, the rest at 900V",2.95,6.85,2.99,7.44,26,,K2211211133_hh035,without YT 112
136,K2211211342_hh036,QH induced,YT212,1.9,6000,0,U_Heater1; U_Heater2; U_Heater3; U_Heater4; U_Heater5; U_Heater6; U_Heater7; U_Heater8,900; 900; 900; 900; 900; 450; 900; 900,"YT212 at 450 V, the rest at 900V",All the other QHs,0.002; 0.002; 0.002; 0.002; 0.002; -.1; 0.002; 0.002,7; 7; 7; 7; 7; 7; 7; 7,0.00705; 0.00705; 0.00705; 0.00705; 0.00705; 0.00705; 0.00705; 0.00705,,,,,,3,6,YT212,All the other QHs,"450
900",7,0,"YT212 at 450 V, the rest at 900V",17.64,18.45,17.75,20.11,74,,K2211211342_hh036,without YT 112
137,K2211211731_hh037,QH induced,YT212,1.9,12330,0,U_Heater1; U_Heater2; U_Heater3; U_Heater4; U_Heater5; U_Heater6; U_Heater7; U_Heater8,900; 900; 900; 900; 900; 450; 900; 900,"YT212 at 450 V, the rest at 900V",All the other QHs,0.002; 0.002; 0.002; 0.002; 0.002; -.1; 0.002; 0.002,7; 7; 7; 7; 7; 7; 7; 7,0.00705; 0.00705; 0.00705; 0.00705; 0.00705; 0.00705; 0.00705; 0.00705,,,,,,3,12.33,YT212,All the other QHs,"450
900",7,0,"YT212 at 450 V, the rest at 900V",27.03,26.7,28.55,29.44,268,,K2211211731_hh037,without YT 112
138,K2211180922_hh031(1),QH induced,YT111,1.9,2000,0,U_Heater1; U_Heater2; U_Heater3; U_Heater4; U_Heater5; U_Heater6; U_Heater7; U_Heater8,450; 900; 900; 900; 900; 900; 900; 900,"YT111 at 450 V, the rest at 900V",All the other QHs,-.1; 0.002; 0.002; 0.002; 0.002; 0.002; 0.002; 0.002,7; 7; 7; 7; 7; 7; 7; 7,0.00705; 0.00705; 0.00705; 0.00705; 0.00705; 0.00705; 0.00705; 0.00705,,,,,QH delay 8QH 8QHPS,3,2,YT111,All the other QHs,"450
900",7,0,"YT111 at 450 V, the rest at 900V",2.95,6.95,2.99,8.82,26,,K2211180922_hh031(1),without YT 211
139,2211181021_hh032(0),QH induced,YT111,1.9,6000,0,U_Heater1; U_Heater2; U_Heater3; U_Heater4; U_Heater5; U_Heater6; U_Heater7; U_Heater8,450; 900; 900; 900; 900; 900; 900; 900,"YT111 at 450 V, the rest at 900V",All the other QHs,-.1; 0.002; 0.002; 0.002; 0.002; 0.002; 0.002; 0.002,7; 7; 7; 7; 7; 7; 7; 7,0.00705; 0.00705; 0.00705; 0.00705; 0.00705; 0.00705; 0.00705; 0.00705,,,,,,3,6,YT111,All the other QHs,"450
900",7,0,"YT111 at 450 V, the rest at 900V",17.64,,17.75,,74,,2211181021_hh032(0),without YT 211
140,K2211181204_hh033,QH induced,YT111,1.9,12330,0,U_Heater1; U_Heater2; U_Heater3; U_Heater4; U_Heater5; U_Heater6; U_Heater7; U_Heater8,450; 900; 900; 900; 900; 900; 900; 900,"YT111 at 450 V, the rest at 900V",All the other QHs,-.1; 0.002; 0.002; 0.002; 0.002; 0.002; 0.002; 0.002,7; 7; 7; 7; 7; 7; 7; 7,0.00705; 0.00705; 0.00705; 0.00705; 0.00705; 0.00705; 0.00705; 0.00705,,,,,,3,12.33,YT111,All the other QHs,"450
900",7,0,"YT111 at 450 V, the rest at 900V",27.03,26.96,28.55,28.88,268,,K2211181204_hh033,without YT 211
141,K2211161200_hh016,QH induced,YT221,1.9,2000,0,U_Heater1; U_Heater2; U_Heater3; U_Heater4; U_Heater5; U_Heater6; U_Heater7; U_Heater8,900; 900; 900; 900; 900; 900; 900; 900,"YT221 at 900 V, the rest at 900V",All the other QHs 6 quench heaters,0.002; 0.002; 0.002; -0.1; 0.002; 0.002; 0.002; 0.002,7; 7; 7; 7; 7; 7; 7; 7,0.00705; 0.00705; 0.00705; 0.00705; 0.00705; 0.00705; 0.00705; 0.00705,,,,,QH delay 8QH 8QHPS,2,2,YT221,All the other QHs 6 quench heaters,"900
900",7,0,"YT221 at 900 V, the rest at 900V",2.97,,3.01,,26,,K2211161200_hh016,without YT 121
142,K2211161302_hh017,QH induced,YT221,1.9,6000,0,U_Heater1; U_Heater2; U_Heater3; U_Heater4; U_Heater5; U_Heater6; U_Heater7; U_Heater8,900; 900; 900; 900; 900; 900; 900; 900,"YT221 at 900 V, the rest at 900V",All the other QHs 6 quench heaters,0.002; 0.002; 0.002; -0.1; 0.002; 0.002; 0.002; 0.002,7; 7; 7; 7; 7; 7; 7; 7,0.00705; 0.00705; 0.00705; 0.00705; 0.00705; 0.00705; 0.00705; 0.00705,,,,,,2,6,YT221,All the other QHs 6 quench heaters,"900
900",7,0,"YT221 at 900 V, the rest at 900V",17.63,,17.99,,73,,K2211161302_hh017,without YT 121
143,K2211171643_hh030,QH induced,YT221,1.9,12330,0,U_Heater1; U_Heater2; U_Heater3; U_Heater4; U_Heater5; U_Heater6; U_Heater7; U_Heater8,900; 900; 900; 900; 900; 900; 900; 900,"YT221 at 900 V, the rest at 900V",All the other QHs 6 quench heaters,0.002; 0.002; 0.002; -0.1; 0.002; 0.002; 0.002; 0.002,7; 7; 7; 7; 7; 7; 7; 7,0.00705; 0.00705; 0.00705; 0.00705; 0.00705; 0.00705; 0.00705; 0.00705,,,,,,2,12.33,YT221,All the other QHs 6 quench heaters,"900
900",7,0,"YT221 at 900 V, the rest at 900V",26.88,25.6,28.4,28,238,,K2211171643_hh030,without YT 121
144,K2211161549_hh021(1),QH induced,YT212,1.9,2000,0,U_Heater1; U_Heater2; U_Heater3; U_Heater4; U_Heater5; U_Heater6; U_Heater7; U_Heater8,900; 900; 900; 900; 900; 900; 900; 900,"YT212 at 900 V, the rest at 900V",All the other QHs 6 quench heaters,0.002; 0.002; 0.002; 0.002; 0.002; -.1; 0.002; 0.002,7; 7; 7; 7; 7; 7; 7; 7,0.00705; 0.00705; 0.00705; 0.00705; 0.00705; 0.00705; 0.00705; 0.00705,,,,,QH delay 8QH 8QHPS,1,2,YT212,All the other QHs 6 quench heaters,"900
900",7,0,"YT212 at 900 V, the rest at 900V",2.97,6.48,3.01,6.65,26,,K2211161549_hh021(1),without YT 112
145,K2211161626_hh022(1),QH induced,YT212,1.9,6000,0,U_Heater1; U_Heater2; U_Heater3; U_Heater4; U_Heater5; U_Heater6; U_Heater7; U_Heater8,900; 900; 900; 900; 900; 900; 900; 900,"YT212 at 900 V, the rest at 900V",All the other QHs 6 quench heaters,0.002; 0.002; 0.002; 0.002; 0.002; -.1; 0.002; 0.002,7; 7; 7; 7; 7; 7; 7; 7,0.00705; 0.00705; 0.00705; 0.00705; 0.00705; 0.00705; 0.00705; 0.00705,,,,,,1,6,YT212,All the other QHs 6 quench heaters,"900
900",7,0,"YT212 at 900 V, the rest at 900V",17.63,17.83,17.99,18.55,73,,K2211161626_hh022(1),without YT 112
146,K2211161830_hh023(1),QH induced,YT212,1.9,12330,0,U_Heater1; U_Heater2; U_Heater3; U_Heater4; U_Heater5; U_Heater6; U_Heater7; U_Heater8,900; 900; 900; 900; 900; 900; 900; 900,"YT212 at 900 V, the rest at 900V",All the other QHs 6 quench heaters,0.002; 0.002; 0.002; 0.002; 0.002; -.1; 0.002; 0.002,7; 7; 7; 7; 7; 7; 7; 7,0.00705; 0.00705; 0.00705; 0.00705; 0.00705; 0.00705; 0.00705; 0.00705,,,,,,1,12.33,YT212,All the other QHs 6 quench heaters,"900
900",7,0,"YT212 at 900 V, the rest at 900V",26.88,25.92,28.4,27.72,238,,K2211161830_hh023(1),without YT 112
147,K2211171027_hh027,QH induced,YT111,1.9,2000,0,U_Heater1; U_Heater2; U_Heater3; U_Heater4; U_Heater5; U_Heater6; U_Heater7; U_Heater8,900; 900; 900; 900; 900; 900; 900; 900,"YT111 at 900 V, the rest at 900V",All the other QHs 6 quench heaters,-.1; 0.002; 0.002; 0.002; 0.002; 0.002; 0.002; 0.002,7; 7; 7; 7; 7; 7; 7; 7,0.00705; 0.00705; 0.00705; 0.00705; 0.00705; 0.00705; 0.00705; 0.00705,,,,,QH delay 8QH 8QHPS,1,2,YT111,All the other QHs 6 quench heaters,"900
900",7,0,"YT111 at 900 V, the rest at 900V",2.97,6.55,3.01,6.69,26,,K2211171027_hh027,without YT 211
148,K2211171118_hh028,QH induced,YT111,1.9,6000,0,U_Heater1; U_Heater2; U_Heater3; U_Heater4; U_Heater5; U_Heater6; U_Heater7; U_Heater8,900; 900; 900; 900; 900; 900; 900; 900,"YT111 at 900 V, the rest at 900V",All the other QHs 6 quench heaters,-.1; 0.002; 0.002; 0.002; 0.002; 0.002; 0.002; 0.002,7; 7; 7; 7; 7; 7; 7; 7,0.00705; 0.00705; 0.00705; 0.00705; 0.00705; 0.00705; 0.00705; 0.00705,,,,,,1,6,YT111,All the other QHs 6 quench heaters,"900
900",7,0,"YT111 at 900 V, the rest at 900V",17.63,17.99,17.99,18.75,73,,K2211171118_hh028,without YT 211
149,K2211171331_hh029,QH induced,YT111,1.9,12330,0,U_Heater1; U_Heater2; U_Heater3; U_Heater4; U_Heater5; U_Heater6; U_Heater7; U_Heater8,900; 900; 900; 900; 900; 900; 900; 900,"YT111 at 900 V, the rest at 900V",All the other QHs 6 quench heaters,-.1; 0.002; 0.002; 0.002; 0.002; 0.002; 0.002; 0.002,7; 7; 7; 7; 7; 7; 7; 7,0.00705; 0.00705; 0.00705; 0.00705; 0.00705; 0.00705; 0.00705; 0.00705,,,,,,1,12.33,YT111,All the other QHs 6 quench heaters,"900
900",7,0,"YT111 at 900 V, the rest at 900V",26.88,26.22,28.4,28.47,238,,K2211171331_hh029,without YT 211
150,test_not_performed_12,QH induced,"manual quench detection
",1.9,2000,0,U_Heater1; U_Heater2; U_Heater3; U_Heater4; U_Heater5; U_Heater6; U_Heater7; U_Heater8,900; 900; 900; 900; 900; 900; 900; 900,4 QH 4QHPS Standard,"YT212, YT121, YT112, YT221",99999; 99999; 0.002; 0.002; 0.002; 0.002; 99999; 99999,7; 7; 7; 7; 7; 7; 7; 7,0.00705; 0.00705; 0.00705; 0.00705; 0.00705; 0.00705; 0.00705; 0.00705,,,,,"Baseline characterization (4QH, 4QHPS)",1,2,Potaim,"YT212, YT121, YT112, YT221",900,7,0,4 QH 4QHPS Standard,3.43,,3.81,,27,,,
151,test_not_performed_13,QH induced,"manual quench detection
",1.9,4000,0,U_Heater1; U_Heater2; U_Heater3; U_Heater4; U_Heater5; U_Heater6; U_Heater7; U_Heater8,900; 900; 900; 900; 900; 900; 900; 900,4 QH 4QHPS Standard,"YT212, YT121, YT112, YT221",99999; 99999; 0.002; 0.002; 0.002; 0.002; 99999; 99999,7; 7; 7; 7; 7; 7; 7; 7,0.00705; 0.00705; 0.00705; 0.00705; 0.00705; 0.00705; 0.00705; 0.00705,,,,,,2,4,Potaim,"YT212, YT121, YT112, YT221",900,7,0,4 QH 4QHPS Standard,12.46,,13.75,,51,,,
152,test_not_performed_14,QH induced,"manual quench detection
",1.9,8000,0,U_Heater1; U_Heater2; U_Heater3; U_Heater4; U_Heater5; U_Heater6; U_Heater7; U_Heater8,900; 900; 900; 900; 900; 900; 900; 900,4 QH 4QHPS Standard,"YT212, YT121, YT112, YT221",99999; 99999; 0.002; 0.002; 0.002; 0.002; 99999; 99999,7; 7; 7; 7; 7; 7; 7; 7,0.00705; 0.00705; 0.00705; 0.00705; 0.00705; 0.00705; 0.00705; 0.00705,,,,,,1,8,Potaim,"YT212, YT121, YT112, YT221",900,7,0,4 QH 4QHPS Standard,25.48,,29,,155,,,
153,test_not_performed_15,QH induced,"manual quench detection
",1.9,12330,0,U_Heater1; U_Heater2; U_Heater3; U_Heater4; U_Heater5; U_Heater6; U_Heater7; U_Heater8,900; 900; 900; 900; 900; 900; 900; 900,4 QH 4QHPS Standard,"YT212, YT121, YT112, YT221",99999; 99999; 0.002; 0.002; 0.002; 0.002; 99999; 99999,7; 7; 7; 7; 7; 7; 7; 7,0.00705; 0.00705; 0.00705; 0.00705; 0.00705; 0.00705; 0.00705; 0.00705,,,,,,1,12.33,Potaim,"YT212, YT121, YT112, YT221",900,7,0,4 QH 4QHPS Standard,31.72,,35.88,,300,,,
154,test_not_performed_16,QH induced,"manual quench detection
",1.9,13360,0,U_Heater1; U_Heater2; U_Heater3; U_Heater4; U_Heater5; U_Heater6; U_Heater7; U_Heater8,900; 900; 900; 900; 900; 900; 900; 900,4 QH 4QHPS Standard,"YT212, YT121, YT112, YT221",99999; 99999; 0.002; 0.002; 0.002; 0.002; 99999; 99999,7; 7; 7; 7; 7; 7; 7; 7,0.00705; 0.00705; 0.00705; 0.00705; 0.00705; 0.00705; 0.00705; 0.00705,,,,,,1,13.36,Potaim,"YT212, YT121, YT112, YT221",900,7,0,4 QH 4QHPS Standard,31.7,,35.44,,300,,,
155,test_not_performed_17,QH induced,"manual quench detection
",1.9,2000,0,U_Heater1; U_Heater2; U_Heater3; U_Heater4; U_Heater5; U_Heater6; U_Heater7; U_Heater8,900; 900; 900; 900; 900; 900; 900; 900,4 QH 4QHPS Failure 3,"YT212, YT221",99999; 99999; 99999; 0.002; 99999; 0.002; 99999; 99999,7; 7; 7; 7; 7; 7; 7; 7,0.00705; 0.00705; 0.00705; 0.00705; 0.00705; 0.00705; 0.00705; 0.00705,,,,,"Baseline characterization (4QH, 4QHPS)",1,2,Potaim,"YT212, YT221",900,7,0,4 QH 4QHPS Failure 3,3.65,,4.02,,28,,,
156,test_not_performed_18,QH induced,"manual quench detection
",1.9,4000,0,U_Heater1; U_Heater2; U_Heater3; U_Heater4; U_Heater5; U_Heater6; U_Heater7; U_Heater8,900; 900; 900; 900; 900; 900; 900; 900,4 QH 4QHPS Failure 3,"YT212, YT221",99999; 99999; 99999; 0.002; 99999; 0.002; 99999; 99999,7; 7; 7; 7; 7; 7; 7; 7,0.00705; 0.00705; 0.00705; 0.00705; 0.00705; 0.00705; 0.00705; 0.00705,,,,,,2,4,Potaim,"YT212, YT221",900,7,0,4 QH 4QHPS Failure 3,13.81,,15.1,,55,,,
157,test_not_performed_19,QH induced,"manual quench detection
",1.9,8000,0,U_Heater1; U_Heater2; U_Heater3; U_Heater4; U_Heater5; U_Heater6; U_Heater7; U_Heater8,900; 900; 900; 900; 900; 900; 900; 900,4 QH 4QHPS Failure 3,"YT212, YT221",99999; 99999; 99999; 0.002; 99999; 0.002; 99999; 99999,7; 7; 7; 7; 7; 7; 7; 7,0.00705; 0.00705; 0.00705; 0.00705; 0.00705; 0.00705; 0.00705; 0.00705,,,,,,1,8,Potaim,"YT212, YT221",900,7,0,4 QH 4QHPS Failure 3,29.58,,33.2,,210,,,
158,test_not_performed_20,QH induced,"manual quench detection
",1.9,12330,0,U_Heater1; U_Heater2; U_Heater3; U_Heater4; U_Heater5; U_Heater6; U_Heater7; U_Heater8,900; 900; 900; 900; 900; 900; 900; 900,4 QH 4QHPS Failure 3,"YT212, YT221",99999; 99999; 99999; 0.002; 99999; 0.002; 99999; 99999,7; 7; 7; 7; 7; 7; 7; 7,0.00705; 0.00705; 0.00705; 0.00705; 0.00705; 0.00705; 0.00705; 0.00705,,,,,,1,12.33,Potaim,"YT212, YT221",900,7,0,4 QH 4QHPS Failure 3,36.33,,40.49,,420,,,
